{
  "npmScope": "standalone-ce6-admin",
  "implicitDependencies": {
    "angular.json": "*",
    "package.json": {
      "dependencies": "*",
      "devDependencies": "*"
    },
    "tsconfig.json": "*",
    "tslint.json": "*",
    "nx.json": "*"
  },
  "projects": {
    "ce6-admin": {
      "tags": []
    },
    "ce6-admin-e2e": {
      "tags": [],
      "implicitDependencies": ["ce6-admin"]
    },
    "admin": {
      "tags": []
    }
  }
}
